{
  "lang":"en",
  "name":"pipeline",
  "version":"0.0.0",
  "spacy_version":">=3.2.0,<3.3.0",
  "description":"",
  "author":"",
  "email":"",
  "url":"",
  "license":"",
  "spacy_git_version":"0fc3dee77",
  "vectors":{
    "width":0,
    "vectors":0,
    "keys":0,
    "name":null,
    "mode":"default"
  },
  "labels":{
    "tok2vec":[

    ],
    "ner":[
      "CDH",
      "COMM",
      "Organization",
      "Payload_Product",
      "Payload_Sensor"
    ]
  },
  "pipeline":[
    "tok2vec",
    "ner"
  ],
  "components":[
    "tok2vec",
    "ner"
  ],
  "disabled":[

  ],
  "performance":{
    "ents_f":0.8771929825,
    "ents_p":0.8333333333,
    "ents_r":0.9259259259,
    "ents_per_type":{
      "Payload_Product":{
        "p":0.9152542373,
        "r":0.9642857143,
        "f":0.9391304348
      },
      "Organization":{
        "p":0.6153846154,
        "r":0.8421052632,
        "f":0.7111111111
      },
      "CDH":{
        "p":1.0,
        "r":0.5,
        "f":0.6666666667
      },
      "Payload_Sensor":{
        "p":1.0,
        "r":1.0,
        "f":1.0
      }
    },
    "tok2vec_loss":205.8665297649,
    "ner_loss":358.1956285427
  }
}