[
  "\t",
  "\n",
  " ",
  "  ",
  "\"",
  "%",
  "'",
  "''",
  "'-(",
  "'-)",
  "'Cause",
  "'Cos",
  "'Coz",
  "'Cuz",
  "'S",
  "'X",
  "'Xxx",
  "'Xxxxx",
  "'am",
  "'bout",
  "'cause",
  "'cos",
  "'coz",
  "'cuz",
  "'d",
  "'em",
  "'ll",
  "'m",
  "'nuff",
  "'re",
  "'s",
  "'ve",
  "'x",
  "'xx",
  "'xxx",
  "'xxxx",
  "'y",
  "(",
  "(((",
  "(*>",
  "(*_*)",
  "(-8",
  "(-:",
  "(-;",
  "(-_-)",
  "(-d",
  "(._.)",
  "(:",
  "(;",
  "(=",
  "(>_<)",
  "(^_^)",
  "(o:",
  "(x:",
  "(x_x)",
  "(\u00ac_\u00ac)",
  "(\u0ca0_\u0ca0)",
  "(\u256f\u00b0\u25a1\u00b0\uff09\u256f\ufe35\u253b\u2501\u253b",
  ")",
  ")))",
  ")-:",
  ")/\u00af",
  "):",
  "*",
  "+",
  ",",
  "-",
  "-((",
  "-))",
  "-/",
  "-0",
  "-05",
  "-3",
  "-8",
  "-D",
  "-O",
  "-P",
  "-X",
  "-_-",
  "-__-",
  "-d",
  "-o",
  "-p",
  "-x",
  "-|",
  ".",
  ".64",
  ".73",
  ".C.",
  ".D.",
  ".E.",
  ".G.",
  ".H.",
  ".J.",
  ".M.",
  ".S.",
  ".Y.",
  "._.",
  ".e.",
  ".g.",
  ".m.",
  ".s.",
  "/",
  "/-",
  "/3",
  "/d",
  "/or",
  "0",
  "0.0",
  "0.125",
  "0.2",
  "0.3",
  "0.6",
  "0.64",
  "0.73",
  "0.989",
  "0.o",
  "002",
  "005",
  "006",
  "009",
  "011",
  "01116",
  "012",
  "01273",
  "01503A",
  "01503a",
  "01545",
  "01546",
  "01572A",
  "01572a",
  "01581",
  "01584A",
  "01584a",
  "01587",
  "01589A",
  "01589a",
  "01590",
  "01591A",
  "01591a",
  "01594",
  "01621",
  "01625",
  "01633",
  "01731",
  "01733",
  "01866",
  "02115",
  "02115)(CCR",
  "02115)(ccr",
  "02163",
  "02166",
  "02168",
  "02286",
  "02416",
  "02501",
  "02588",
  "02600",
  "02601(RDW",
  "02601(rdw",
  "02923",
  "02924",
  "02970",
  "03236",
  "03265",
  "03353B",
  "03353b",
  "03362",
  "03376",
  "03444",
  "03446",
  "03492A",
  "03492a",
  "03569B",
  "03569b",
  "039",
  "03A",
  "03a",
  "068",
  "084",
  "094",
  "095",
  "0:1",
  "0_0",
  "0_o",
  "1",
  "1.5",
  "10",
  "100",
  "10a.m",
  "10a.m.",
  "10p.m",
  "10p.m.",
  "11",
  "115",
  "116",
  "11a.m",
  "11a.m.",
  "11p.m",
  "11p.m.",
  "12",
  "125",
  "127",
  "12a.m",
  "12a.m.",
  "12p.m",
  "12p.m.",
  "13",
  "15",
  "157",
  "1571A",
  "1571a",
  "16",
  "160",
  "163",
  "166",
  "168",
  "18",
  "1841A",
  "1841a",
  "196",
  "1a.m",
  "1a.m.",
  "1b",
  "1p.m",
  "1p.m.",
  "2",
  "2009",
  "21",
  "22",
  "236",
  "24",
  "25",
  "265",
  "273",
  "286",
  "2a.m",
  "2a.m.",
  "2p.m",
  "2p.m.",
  "3",
  "30",
  "31",
  "33",
  "333",
  "34",
  "35",
  "36",
  "362",
  "376",
  "3a.m",
  "3a.m.",
  "3p.m",
  "3p.m.",
  "4",
  "409",
  "410",
  "416",
  "417",
  "41A",
  "41a",
  "423",
  "444",
  "446",
  "4a.m",
  "4a.m.",
  "4p.m",
  "4p.m.",
  "5",
  "5.0",
  "501",
  "50:1",
  "53B",
  "53b",
  "545",
  "546",
  "581",
  "587",
  "588",
  "590",
  "594",
  "5a.m",
  "5a.m.",
  "5p.m",
  "5p.m.",
  "6",
  "600",
  "621",
  "625",
  "633",
  "69B",
  "69b",
  "6a.m",
  "6a.m.",
  "6p.m",
  "6p.m.",
  "7",
  "70",
  "71A",
  "71a",
  "72A",
  "72a",
  "731",
  "733",
  "75",
  "7a.m",
  "7a.m.",
  "7p.m",
  "7p.m.",
  "8",
  "8)",
  "8-",
  "8-)",
  "8-D",
  "8-d",
  "8.4",
  "84A",
  "84a",
  "866",
  "89A",
  "89a",
  "8D",
  "8a.m",
  "8a.m.",
  "8d",
  "8p.m",
  "8p.m.",
  "9",
  "9.5",
  "91A",
  "91a",
  "923",
  "924",
  "92A",
  "92a",
  "970",
  "989",
  "99.5",
  "9a.m",
  "9a.m.",
  "9p.m",
  "9p.m.",
  ":",
  ":'(",
  ":')",
  ":'-(",
  ":'-)",
  ":(",
  ":((",
  ":(((",
  ":()",
  ":)",
  ":))",
  ":)))",
  ":*",
  ":-(",
  ":-((",
  ":-(((",
  ":-)",
  ":-))",
  ":-)))",
  ":-*",
  ":-/",
  ":-0",
  ":-3",
  ":->",
  ":-D",
  ":-O",
  ":-P",
  ":-X",
  ":-]",
  ":-d",
  ":-o",
  ":-p",
  ":-x",
  ":-|",
  ":-}",
  ":/",
  ":0",
  ":1",
  ":3",
  ":>",
  ":D",
  ":O",
  ":P",
  ":X",
  ":]",
  ":d",
  ":o",
  ":o)",
  ":p",
  ":x",
  ":x)",
  ":|",
  ":}",
  ":\u2019(",
  ":\u2019)",
  ":\u2019-(",
  ":\u2019-)",
  ";",
  ";)",
  ";-)",
  ";-D",
  ";-X",
  ";-d",
  ";D",
  ";X",
  ";_;",
  ";d",
  "<",
  "<.<",
  "</3",
  "</d",
  "<3",
  "<33",
  "<333",
  "<d",
  "<dd",
  "<ddd",
  "<space>",
  "<xxxx>",
  "=",
  "=(",
  "=)",
  "=/",
  "=3",
  "=D",
  "=X",
  "=[",
  "=]",
  "=d",
  "=|",
  ">",
  ">.<",
  ">.>",
  ">:(",
  ">:o",
  ">:x",
  "><(((*>",
  "@",
  "@_@",
  "A",
  "AA",
  "ABI",
  "ABIMAR-0012",
  "ADRS",
  "ASA",
  "AWIPS",
  "Absorbed",
  "Access",
  "Adm",
  "Adm.",
  "Advanced",
  "Aerosol",
  "Age",
  "Agreement",
  "Ai",
  "Aided",
  "Aircraft",
  "Ak",
  "Ak.",
  "Ala",
  "Ala.",
  "Alabama",
  "Alaska",
  "Albedo",
  "Applicable",
  "Apr",
  "Apr.",
  "April",
  "Archival",
  "Are",
  "Ariz",
  "Ariz.",
  "Arizona",
  "Ark",
  "Ark.",
  "Arkansas",
  "Assurance",
  "Atmosphere",
  "Atmospheric",
  "Aug",
  "Aug.",
  "August",
  "Authority",
  "Auxiliary",
  "B",
  "Baseline",
  "Beacon",
  "Beacons",
  "Bros",
  "Bros.",
  "Budget",
  "C",
  "C'm",
  "C++",
  "C.",
  "C2",
  "C3S",
  "CCOR",
  "CCR",
  "CCR01423",
  "CCR02115",
  "CDH",
  "CMI",
  "COMM",
  "CONUS",
  "COR",
  "Ca",
  "Calibration",
  "Calif",
  "Calif.",
  "California",
  "Can",
  "Cause",
  "Center",
  "Centers",
  "Channel",
  "Characterization",
  "Clear",
  "Cloud",
  "Co",
  "Co.",
  "Collection",
  "Collections",
  "Colo",
  "Colo.",
  "Colorado",
  "Command",
  "Commerce",
  "Commitment",
  "Communication",
  "Compact",
  "Concentration",
  "Configuration",
  "Congressional",
  "Conn",
  "Conn.",
  "Connecticut",
  "Control",
  "Convective",
  "Coronagraph",
  "Corp",
  "Corp.",
  "Cos",
  "Could",
  "Council",
  "Cover",
  "Coz",
  "Currents",
  "Cuz",
  "C\u2019m",
  "D",
  "D.",
  "D.C.",
  "DCP",
  "DCS",
  "DIS",
  "DRS",
  "DUS",
  "Dare",
  "Data",
  "Dec",
  "Dec.",
  "December",
  "Decision",
  "Del",
  "Del.",
  "Delaware",
  "Delegation",
  "Department",
  "Depth",
  "Deputy",
  "Derived",
  "Detailed",
  "Detection",
  "Detector",
  "Did",
  "Direct",
  "Director",
  "Distress",
  "Distribution",
  "Do",
  "Document",
  "Documents",
  "Does",
  "Doin",
  "Doin'",
  "Doin\u2019",
  "Downward",
  "Dr",
  "Dr.",
  "Duration",
  "Dust",
  "Dvorak",
  "E",
  "E.G.",
  "E.g",
  "E.g.",
  "EELV",
  "EHIS",
  "ELV",
  "EMWIN",
  "EUV",
  "EUVS",
  "EXIS",
  "Earth",
  "East",
  "Electrons",
  "Emergency",
  "Emissivity",
  "Energetic",
  "Energy",
  "Enhanced",
  "Environment",
  "Environmental",
  "Evolved",
  "Expendable",
  "Extreme",
  "F",
  "F.",
  "Feb",
  "Feb.",
  "February",
  "Field",
  "Fire",
  "Fla",
  "Fla.",
  "Flood",
  "Florida",
  "Flux",
  "Fog",
  "Folding",
  "Follow",
  "For",
  "Fraction",
  "G",
  "G417",
  "GAS",
  "GLM",
  "GOES",
  "GORWG",
  "GPS",
  "GRB",
  "GS",
  "GSMAR-0068",
  "Ga",
  "Ga.",
  "Galactic",
  "Gen",
  "Gen.",
  "Geomagnetic",
  "Georgia",
  "Geostationary",
  "Goin",
  "Goin'",
  "Goin\u2019",
  "Gon",
  "Got",
  "Gov",
  "Gov.",
  "Green",
  "Ground",
  "Group",
  "H",
  "HIS",
  "HRIT",
  "Had",
  "Has",
  "Have",
  "Havin",
  "Havin'",
  "Havin\u2019",
  "He",
  "He's",
  "Heavy",
  "Height",
  "Heights",
  "Hemispheric",
  "He\u2019s",
  "High",
  "Hot",
  "How",
  "How's",
  "How\u2019s",
  "Hz",
  "I",
  "I.E.",
  "I.e",
  "I.e.",
  "IMAR-0039",
  "IPS",
  "IPv6",
  "IRD",
  "IRD-0002",
  "IRD-0005",
  "IRD-0006",
  "IRD-0094",
  "IRD-0095",
  "IRD-0157",
  "IRD-0160",
  "IRD-0168",
  "IRD-0196",
  "IRD-0409",
  "ISS",
  "IT",
  "Ia",
  "Ia.",
  "Ice",
  "Icing",
  "Id",
  "Id.",
  "Idaho",
  "Ill",
  "Ill.",
  "Illinois",
  "Image",
  "Imager",
  "Imagery",
  "In",
  "Inc",
  "Inc.",
  "Ind",
  "Ind.",
  "Index",
  "Indiana",
  "Indices",
  "Information",
  "Initiation",
  "Instrument",
  "Interface",
  "Ion",
  "Ions",
  "Iowa",
  "Irradiance",
  "Is",
  "It",
  "It's",
  "It\u2019s",
  "J",
  "Jan",
  "Jan.",
  "January",
  "Jr",
  "Jr.",
  "Jul",
  "Jul.",
  "July",
  "Jun",
  "Jun.",
  "June",
  "K",
  "K.",
  "Kan",
  "Kan.",
  "Kans",
  "Kans.",
  "Kansas",
  "Kentucky",
  "Key",
  "Ky",
  "Ky.",
  "L",
  "L0",
  "L1b",
  "L2",
  "La",
  "La.",
  "Lake",
  "Land",
  "Launch",
  "Layers",
  "Legacy",
  "Let",
  "Let's",
  "Let\u2019s",
  "Level",
  "Lightning",
  "Liquid",
  "Longwave",
  "Louisiana",
  "Lovin",
  "Lovin'",
  "Lovin\u2019",
  "Low",
  "Ltd",
  "Ltd.",
  "M",
  "M-05",
  "MD",
  "MMD",
  "MOU",
  "MPS",
  "Ma'am",
  "Magnetometer",
  "Magnetospheric",
  "Management",
  "Managers",
  "Mapper",
  "Mar",
  "Mar.",
  "March",
  "Masks",
  "Mass",
  "Mass.",
  "Massachusetts",
  "MaxTTR",
  "Maximum",
  "May",
  "May.",
  "Ma\u2019am",
  "Md",
  "Md.",
  "Mean",
  "Measurement",
  "Medium",
  "Memorandum",
  "Mesoscale",
  "Messrs",
  "Messrs.",
  "Mich",
  "Mich.",
  "Michigan",
  "Might",
  "Minn",
  "Minn.",
  "Minnesota",
  "Miss",
  "Miss.",
  "Mission",
  "Mississippi",
  "Mo",
  "Mo.",
  "Moisture",
  "Mont",
  "Mont.",
  "Motion",
  "Mount",
  "Mr",
  "Mr.",
  "Mrs",
  "Mrs.",
  "Ms",
  "Ms.",
  "Mt",
  "Mt.",
  "Must",
  "N",
  "N.C.",
  "N.D.",
  "N.H.",
  "N.J.",
  "N.M.",
  "N.Y.",
  "NASA",
  "NESDIS",
  "NOAA",
  "NOSC",
  "NUS",
  "National",
  "Neb",
  "Neb.",
  "Nebr",
  "Nebr.",
  "Nebraska",
  "Need",
  "Network",
  "Nev",
  "Nev.",
  "Nevada",
  "New Hampshire",
  "New Jersey",
  "New Mexico",
  "New York",
  "North",
  "North Carolina",
  "North Dakota",
  "Not",
  "Nothin",
  "Nothin'",
  "Nothin\u2019",
  "Nov",
  "Nov.",
  "November",
  "Nuthin",
  "Nuthin'",
  "Nuthin\u2019",
  "O",
  "O'clock",
  "O.O",
  "O.o",
  "OAA",
  "OES",
  "OMB",
  "OMM",
  "OSC",
  "O_O",
  "O_o",
  "Ocean",
  "Oceans",
  "Oct",
  "Oct.",
  "October",
  "Offshore",
  "Okla",
  "Okla.",
  "Oklahoma",
  "Ol",
  "Ol'",
  "Ol\u2019",
  "On",
  "Operating",
  "Operational",
  "Optical",
  "Ore",
  "Ore.",
  "Oregon",
  "Organization",
  "Ought",
  "Ozone",
  "O\u2019clock",
  "P",
  "P417",
  "PCA",
  "PLN-0084",
  "Pa",
  "Pa.",
  "Particle",
  "Path",
  "Payload_Product",
  "Payload_Sensor",
  "Pennsylvania",
  "Ph",
  "Ph.D.",
  "Phase",
  "Plains",
  "Plan",
  "Platform",
  "Platforms",
  "Point",
  "Policy",
  "Potential",
  "Precipitable",
  "Prediction",
  "Pressure",
  "Probability",
  "Product",
  "Prof",
  "Prof.",
  "Profile",
  "Program",
  "Project",
  "Proton",
  "Protons",
  "Pv6",
  "Q",
  "QPE",
  "R",
  "R-",
  "RDW",
  "RIT",
  "ROOT",
  "RWG",
  "Radiance",
  "Radiances",
  "Radiation",
  "Rainfall",
  "Range",
  "Rate",
  "Ray",
  "Readout",
  "Rebroadcast",
  "Reflected",
  "Rep",
  "Rep.",
  "Requirements",
  "Rescue",
  "Resources",
  "Restore",
  "Rev",
  "Rev.",
  "S",
  "S.C.",
  "SAR",
  "SARSAT",
  "SAT",
  "SCMAR-0011",
  "SEISS",
  "SGPS",
  "SNR",
  "SO2",
  "SPD",
  "SS",
  "SSP",
  "SUVI",
  "SWFO",
  "SWPC",
  "Satellite",
  "Satellite-",
  "Sea",
  "Search",
  "Secretary",
  "Security",
  "Segment",
  "Segments",
  "Sen",
  "Sen.",
  "Sensor",
  "Sensors",
  "Sep",
  "Sep.",
  "Sept",
  "Sept.",
  "September",
  "Series",
  "Service",
  "Services",
  "Sha",
  "She",
  "She's",
  "She\u2019s",
  "Shortwave",
  "Should",
  "Situ",
  "Size",
  "Sky",
  "Smoke",
  "Snow",
  "Solar",
  "Some",
  "Somethin",
  "Somethin'",
  "Somethin\u2019",
  "South",
  "South Carolina",
  "Space",
  "Spacecraft",
  "Spot",
  "St",
  "St.",
  "Stability",
  "Standing",
  "Stations",
  "Subsystem",
  "Suite",
  "Suitland",
  "Surface",
  "Swath",
  "System",
  "Systems",
  "T",
  "TOA",
  "TTR",
  "Technique",
  "Technology",
  "Temperature",
  "Tenn",
  "Tenn.",
  "Tennessee",
  "Terminals",
  "That",
  "That's",
  "That\u2019s",
  "The",
  "There",
  "There's",
  "There\u2019s",
  "These",
  "These's",
  "These\u2019s",
  "They",
  "This",
  "This's",
  "This\u2019s",
  "Those",
  "Those's",
  "Those\u2019s",
  "Threat",
  "Time",
  "To",
  "Top",
  "Total",
  "Tracking",
  "Transmission",
  "Tropopause",
  "Turbulence",
  "Type",
  "U",
  "U.S.",
  "UVI",
  "UVS",
  "Ultraviolet",
  "Under",
  "Understanding",
  "Upon",
  "Upward",
  "User",
  "V",
  "V\"/Overshooting",
  "V.V",
  "VA",
  "V_V",
  "Va",
  "Va.",
  "Vegetation",
  "Vehicle",
  "Vertical",
  "Virginia",
  "Visibility",
  "W",
  "WFO",
  "WIN",
  "WPC",
  "Wallops",
  "Was",
  "Wash",
  "Wash.",
  "Washington",
  "Water",
  "We",
  "Weather",
  "Were",
  "West",
  "What",
  "What's",
  "What\u2019s",
  "When",
  "When's",
  "When\u2019s",
  "Where",
  "Where's",
  "Where\u2019s",
  "Who",
  "Who's",
  "Who\u2019s",
  "Why",
  "Why's",
  "Why\u2019s",
  "Winds",
  "Wis",
  "Wis.",
  "Wisconsin",
  "Wo",
  "Working",
  "Would",
  "X\"/Xxxxx",
  "X'x",
  "X'xxxx",
  "X++",
  "X-",
  "X-dd",
  "X.",
  "X.X",
  "X.X.",
  "X.x",
  "X.x.",
  "XD",
  "XDD",
  "XIS",
  "XRS",
  "XX",
  "XXX",
  "XXX-dddd",
  "XXXX",
  "XXXX-dddd",
  "XXXdddd",
  "XXd",
  "XXxd",
  "X_X",
  "X_x",
  "Xd",
  "XdX",
  "Xddd",
  "Xdx",
  "Xx",
  "Xx'",
  "Xx'x",
  "Xx'xx",
  "Xx.",
  "Xx.X.",
  "Xxx",
  "Xxx'x",
  "Xxx.",
  "XxxXXX",
  "Xxxx",
  "Xxxx'",
  "Xxxx'x",
  "Xxxx.",
  "Xxxxx",
  "Xxxxx'",
  "Xxxxx'x",
  "Xxxxx-",
  "Xxxxx.",
  "Xxxxx_Xxxxx",
  "Xxxxx\u2019",
  "Xxxxx\u2019x",
  "Xxxx\u2019",
  "Xxxx\u2019x",
  "Xxx\u2019x",
  "Xx\u2019",
  "Xx\u2019x",
  "Xx\u2019xx",
  "X\u2019x",
  "X\u2019xxxx",
  "Y",
  "You",
  "[",
  "[-:",
  "[:",
  "[=",
  "\\",
  "\\\")",
  "\\n",
  "\\t",
  "\\x",
  "]",
  "]=",
  "^",
  "^_^",
  "^__^",
  "^___^",
  "_*)",
  "_-)",
  "_.)",
  "_<)",
  "_^)",
  "__-",
  "__^",
  "_\u00ac)",
  "_\u0ca0)",
  "a",
  "a.",
  "a.m",
  "a.m.",
  "aa",
  "abi",
  "ability",
  "abimar-0012",
  "about",
  "absolute",
  "absorbed",
  "access",
  "accordance",
  "accuracy",
  "ace",
  "ach",
  "ack",
  "acquire",
  "acquired",
  "acquisition",
  "act",
  "activities",
  "activity",
  "acy",
  "ade",
  "adjacent",
  "adm",
  "adm.",
  "adrs",
  "ads",
  "advanced",
  "aerosol",
  "aft",
  "after",
  "against",
  "age",
  "agreement",
  "ai",
  "aided",
  "ain",
  "aircraft",
  "ak",
  "ak.",
  "ake",
  "ala",
  "ala.",
  "albedo",
  "ale",
  "algorithm",
  "algorithms",
  "aliasing",
  "alignment",
  "all",
  "allow",
  "als",
  "am",
  "ame",
  "an",
  "an.",
  "analysis",
  "ancillary",
  "and",
  "and/or",
  "ane",
  "annual",
  "ans",
  "aph",
  "applicable",
  "apply",
  "appropriate",
  "approved",
  "apr",
  "apr.",
  "aps",
  "ar.",
  "archival",
  "archive",
  "ard",
  "are",
  "area",
  "ariz",
  "ariz.",
  "ark",
  "ark.",
  "ars",
  "ary",
  "as",
  "asa",
  "ase",
  "ash",
  "ass",
  "associated",
  "assurance",
  "ast",
  "at",
  "ata",
  "ate",
  "ath",
  "atmosphere",
  "atmospheric",
  "ats",
  "aug",
  "aug.",
  "authority",
  "autonomously",
  "auxiliary",
  "availability",
  "available",
  "ave",
  "average",
  "avy",
  "awips",
  "axis",
  "ay.",
  "ays",
  "b",
  "b.",
  "background",
  "band",
  "bands",
  "bandwidth",
  "based",
  "baseline",
  "be",
  "beacon",
  "beacons",
  "because",
  "bed",
  "been",
  "being",
  "bel",
  "below",
  "between",
  "bit",
  "ble",
  "bout",
  "br.",
  "bros",
  "bros.",
  "budget",
  "by",
  "c",
  "c'm",
  "c++",
  "c.",
  "c2",
  "c3s",
  "ca",
  "cadence",
  "cal",
  "calibrated",
  "calibration",
  "calif",
  "calif.",
  "can",
  "categories",
  "cause",
  "ccor",
  "ccr",
  "ccr01423",
  "ccr02115",
  "cdh",
  "ce>",
  "ced",
  "center",
  "centered",
  "centers",
  "ces",
  "ch.",
  "change",
  "changes",
  "channel",
  "channels",
  "characterization",
  "cil",
  "class",
  "cle",
  "clear",
  "cloud",
  "cmi",
  "co",
  "co.",
  "coincident",
  "collect",
  "collection",
  "collections",
  "colo",
  "colo.",
  "come",
  "comm",
  "command",
  "commands",
  "commerce",
  "commitment",
  "communication",
  "communications",
  "compact",
  "compliance",
  "compliment",
  "comply",
  "component",
  "components",
  "computed",
  "con",
  "concentration",
  "conditions",
  "configuration",
  "conform",
  "congressional",
  "conn",
  "conn.",
  "consecutive",
  "constrain",
  "contact",
  "contain",
  "content",
  "continuous",
  "continuously",
  "control",
  "conus",
  "convective",
  "coordinate",
  "cor",
  "coronagraph",
  "coronal",
  "corp",
  "corp.",
  "correction",
  "cos",
  "could",
  "council",
  "cover",
  "coverage",
  "coz",
  "ct.",
  "cts",
  "cue",
  "current",
  "currents",
  "cuz",
  "c\u2019m",
  "d",
  "d)",
  "d-",
  "d-)",
  "d-X",
  "d.",
  "d.c.",
  "d.d",
  "d.dd",
  "d.ddd",
  "d.x",
  "dX",
  "d_d",
  "d_x",
  "dare",
  "data",
  "days",
  "dcp",
  "dcs",
  "dd",
  "dd.d",
  "dd:d",
  "ddd",
  "dddd",
  "dddd(XXX",
  "dddd(xxx",
  "dddd)(XXX",
  "dddd)(xxx",
  "ddddX",
  "ddddx",
  "ddx.x",
  "ddx.x.",
  "dec",
  "dec.",
  "decision",
  "decrypt",
  "ded",
  "defined",
  "degree",
  "del",
  "del.",
  "delegation",
  "department",
  "depth",
  "deputy",
  "der",
  "derived",
  "described",
  "descriptions",
  "designated",
  "detailed",
  "detect",
  "detection",
  "detector",
  "determine",
  "develop",
  "development",
  "deviation",
  "deviations",
  "dex",
  "did",
  "digital",
  "dio",
  "direct",
  "directions",
  "director",
  "dis",
  "discriminate",
  "disk",
  "distress",
  "distributed",
  "distribution",
  "dm.",
  "do",
  "document",
  "documents",
  "does",
  "doin",
  "doin'",
  "doing",
  "doin\u2019",
  "downlink",
  "downward",
  "dr",
  "dr.",
  "drift",
  "drs",
  "dth",
  "due",
  "dum",
  "duration",
  "during",
  "dus",
  "dust",
  "dvorak",
  "dx",
  "dx.x",
  "dx.x.",
  "e",
  "e's",
  "e.",
  "e.g",
  "e.g.",
  "each",
  "eal",
  "eam",
  "ean",
  "ear",
  "earth",
  "east",
  "eat",
  "eb.",
  "ebr",
  "ec.",
  "eclipse",
  "ect",
  "edo",
  "eed",
  "eelv",
  "een",
  "eet",
  "ehis",
  "either",
  "ejection",
  "ejections",
  "el.",
  "eld",
  "electrons",
  "els",
  "elv",
  "em",
  "eme",
  "emergency",
  "emissive",
  "emissivity",
  "employ",
  "ems",
  "emwin",
  "en",
  "en.",
  "encrypt",
  "encrypted",
  "end",
  "ene",
  "energetic",
  "energies",
  "energy",
  "engineering",
  "enhanced",
  "enn",
  "enough",
  "ent",
  "entire",
  "environment",
  "environmental",
  "ep.",
  "ept",
  "equal",
  "equivalently",
  "ere",
  "erm",
  "error",
  "errors",
  "ers",
  "ery",
  "ese",
  "ess",
  "est",
  "established",
  "estimates",
  "ety",
  "euv",
  "euvs",
  "ev.",
  "evaluation",
  "event",
  "events",
  "evolved",
  "exceed",
  "exis",
  "existing",
  "expendable",
  "experience",
  "external",
  "externally",
  "extreme",
  "e\u2019s",
  "f",
  "f.",
  "facilities",
  "false",
  "feb",
  "feb.",
  "field",
  "fire",
  "five",
  "fla",
  "fla.",
  "flares",
  "flood",
  "fluctuating",
  "flux",
  "fog",
  "folding",
  "follow",
  "following",
  "for",
  "formats",
  "fraction",
  "frame",
  "frequency",
  "from",
  "full",
  "functionalities",
  "functionality",
  "functions",
  "g",
  "g.",
  "g417",
  "ga",
  "ga.",
  "galactic",
  "gaps",
  "gas",
  "ged",
  "gen",
  "gen.",
  "generated",
  "generation",
  "geomagnetic",
  "geostationary",
  "geosynchronous",
  "ger",
  "ges",
  "get",
  "ght",
  "given",
  "gle",
  "glm",
  "goes",
  "goin",
  "goin'",
  "going",
  "goin\u2019",
  "gon",
  "gonna",
  "gorwg",
  "got",
  "gov",
  "gov.",
  "gps",
  "grb",
  "greater",
  "green",
  "ground",
  "group",
  "gs",
  "gsmar-0068",
  "guidance",
  "h",
  "h.",
  "had",
  "han",
  "hardware",
  "has",
  "hat",
  "have",
  "havin",
  "havin'",
  "having",
  "havin\u2019",
  "he",
  "he's",
  "health",
  "heavy",
  "hed",
  "height",
  "heights",
  "hemispheric",
  "hen",
  "her",
  "hes",
  "hey",
  "he\u2019s",
  "high",
  "hin",
  "his",
  "hly",
  "hms",
  "hot",
  "hour",
  "hours",
  "how",
  "how's",
  "how\u2019s",
  "hrit",
  "hts",
  "hurricane",
  "hz",
  "i",
  "i.",
  "i.e",
  "i.e.",
  "ia",
  "ia.",
  "ial",
  "ice",
  "ich",
  "icing",
  "ics",
  "icy",
  "id",
  "id.",
  "ide",
  "ied",
  "ies",
  "iet",
  "if",
  "if.",
  "ife",
  "ift",
  "igh",
  "ile",
  "ill",
  "ill.",
  "image",
  "imager",
  "imagery",
  "images",
  "imar-0039",
  "ime",
  "immediate",
  "implement",
  "in",
  "in'",
  "inc",
  "inc.",
  "include",
  "including",
  "ind",
  "ind.",
  "index",
  "indices",
  "ine",
  "information",
  "infrared",
  "ing",
  "ingest",
  "initiation",
  "ink",
  "inn",
  "input",
  "ins",
  "instrument",
  "int",
  "integration",
  "intensity",
  "interest",
  "interface",
  "interfaces",
  "interference",
  "interval",
  "in\u2019",
  "iod",
  "ion",
  "ions",
  "ips",
  "ipv6",
  "ird",
  "ird-0002",
  "ird-0005",
  "ird-0006",
  "ird-0094",
  "ird-0095",
  "ird-0157",
  "ird-0160",
  "ird-0168",
  "ird-0196",
  "ird-0409",
  "ire",
  "irradiance",
  "is",
  "is.",
  "ise",
  "isk",
  "iss",
  "it",
  "it's",
  "ite",
  "ith",
  "its",
  "itu",
  "ity",
  "it\u2019s",
  "ium",
  "ive",
  "iz.",
  "ize",
  "j",
  "j.",
  "jan",
  "jan.",
  "jr",
  "jr.",
  "jul",
  "jul.",
  "jun",
  "jun.",
  "k",
  "k.",
  "kan",
  "kan.",
  "kans",
  "kans.",
  "keV",
  "kev",
  "key",
  "kin",
  "kla",
  "km",
  "ky",
  "ky.",
  "l",
  "l.",
  "l0",
  "l1b",
  "l2",
  "la",
  "la.",
  "lake",
  "lan",
  "land",
  "lar",
  "launch",
  "launches",
  "lay",
  "layers",
  "least",
  "led",
  "legacy",
  "les",
  "less",
  "let",
  "let's",
  "let\u2019s",
  "level",
  "levels",
  "lid",
  "lif",
  "life",
  "lifetime",
  "light",
  "lightning",
  "link",
  "links",
  "liquid",
  "listed",
  "ll",
  "ll.",
  "lly",
  "lo.",
  "location",
  "locations",
  "long",
  "longwave",
  "lop",
  "lovin",
  "lovin'",
  "loving",
  "lovin\u2019",
  "low",
  "loy",
  "lse",
  "ltd",
  "ltd.",
  "lth",
  "lux",
  "m",
  "m-05",
  "m.",
  "ma'am",
  "madam",
  "made",
  "magnetometer",
  "magnetospheric",
  "magnitude",
  "maintain",
  "maintenance",
  "make",
  "mal",
  "managed",
  "management",
  "managers",
  "maneuver",
  "maneuvers",
  "mapper",
  "mar",
  "mar.",
  "masks",
  "mass",
  "mass.",
  "maximum",
  "maxttr",
  "may",
  "may.",
  "ma\u2019am",
  "md",
  "md.",
  "mean",
  "measure",
  "measurement",
  "measurements",
  "medium",
  "meet",
  "meeting",
  "memorandum",
  "mesoscale",
  "messrs",
  "messrs.",
  "metadata",
  "metrics",
  "mich",
  "mich.",
  "micron",
  "might",
  "milestones",
  "minimum",
  "minn",
  "minn.",
  "minute",
  "minutes",
  "mirror",
  "miss",
  "miss.",
  "mission",
  "mly",
  "mmd",
  "mo",
  "mo.",
  "mode",
  "moisture",
  "monitor",
  "mont",
  "mont.",
  "monthly",
  "more",
  "motion",
  "mou",
  "mps",
  "mr",
  "mr.",
  "mrs",
  "mrs.",
  "ms",
  "ms.",
  "mt",
  "mt.",
  "mum",
  "must",
  "n",
  "n's",
  "n't",
  "n.",
  "n.c.",
  "n.d.",
  "n.h.",
  "n.j.",
  "n.m.",
  "n.y.",
  "nT",
  "na",
  "nal",
  "nasa",
  "national",
  "navigate",
  "nc.",
  "nce",
  "nch",
  "ncy",
  "nd.",
  "nds",
  "neb",
  "neb.",
  "nebr",
  "nebr.",
  "ned",
  "need",
  "needed",
  "nel",
  "nes",
  "nesdis",
  "network",
  "nev",
  "nev.",
  "nge",
  "nic",
  "nks",
  "nly",
  "nm",
  "nn.",
  "no",
  "noaa",
  "noise",
  "non",
  "normal",
  "north",
  "nosc",
  "not",
  "nothin",
  "nothin'",
  "nothing",
  "nothin\u2019",
  "nov",
  "nov.",
  "now",
  "ns.",
  "nse",
  "nst",
  "nt",
  "nt.",
  "nts",
  "nty",
  "nuff",
  "nus",
  "nuthin",
  "nuthin'",
  "nuthin\u2019",
  "n\u2019s",
  "n\u2019t",
  "o",
  "o'clock",
  "o's",
  "o.",
  "o.0",
  "o.O",
  "o.o",
  "o_0",
  "o_O",
  "o_o",
  "oaa",
  "observational",
  "observations",
  "ocean",
  "oceans",
  "ock",
  "oct",
  "oct.",
  "ode",
  "ods",
  "oes",
  "of",
  "of.",
  "offshore",
  "ogy",
  "oin",
  "oke",
  "okla",
  "okla.",
  "ol",
  "ol'",
  "old",
  "olo",
  "ol\u2019",
  "omb",
  "ome",
  "on",
  "on-",
  "ond",
  "one",
  "ong",
  "only",
  "onn",
  "ons",
  "ont",
  "ood",
  "operate",
  "operating",
  "operational",
  "operations",
  "ops",
  "optical",
  "or",
  "orbit",
  "orbital",
  "ore",
  "ore.",
  "organization",
  "ork",
  "orm",
  "orp",
  "ors",
  "ort",
  "os.",
  "osc",
  "ose",
  "other",
  "oud",
  "ought",
  "oup",
  "our",
  "ous",
  "out",
  "outages",
  "outlined",
  "outputs",
  "outside",
  "ov.",
  "over",
  "ozone",
  "o\u2019clock",
  "o\u2019s",
  "p",
  "p.",
  "p.m",
  "p.m.",
  "p417",
  "pa",
  "pa.",
  "particle",
  "path",
  "payload_product",
  "payload_sensor",
  "payloads",
  "pca",
  "per",
  "perform",
  "performance",
  "period",
  "periods",
  "ph",
  "ph.d.",
  "phase",
  "pid",
  "plains",
  "plan",
  "platform",
  "platforms",
  "ple",
  "pln-0084",
  "ply",
  "pm",
  "point",
  "policy",
  "pon",
  "portion",
  "positive",
  "pot",
  "potential",
  "pr.",
  "preceded",
  "precipitable",
  "precision",
  "prediction",
  "pressure",
  "primary",
  "probability",
  "process",
  "processed",
  "processing",
  "procured",
  "produce",
  "produces",
  "product",
  "product.(CCR",
  "product.(ccr",
  "production",
  "products",
  "prof",
  "prof.",
  "profile",
  "program",
  "project",
  "properties",
  "proton",
  "protons",
  "provide",
  "provided",
  "pse",
  "pt.",
  "pth",
  "pulses",
  "put",
  "pv6",
  "q",
  "q.",
  "qpe",
  "qualifiers",
  "quality",
  "que",
  "quiet",
  "r",
  "r-",
  "r.",
  "radiance",
  "radiances",
  "radiation",
  "radio",
  "radiometric",
  "rainfall",
  "rak",
  "ral",
  "ram",
  "range",
  "rapid",
  "rate",
  "raw",
  "ray",
  "rce",
  "rch",
  "rds",
  "rdw",
  "re",
  "re.",
  "rea",
  "readout",
  "real",
  "rebroadcast",
  "receive",
  "received",
  "receivers",
  "rectangle",
  "red",
  "reduced",
  "ree",
  "reflected",
  "reflective",
  "register",
  "registration",
  "related",
  "relative",
  "relay",
  "reliability",
  "rep",
  "rep.",
  "repeatability",
  "report",
  "reporting",
  "reproduce",
  "required",
  "requirement",
  "requirements",
  "res",
  "rescue",
  "resources",
  "respond",
  "response",
  "restore",
  "rev",
  "rev.",
  "rgy",
  "ric",
  "rit",
  "riz",
  "rk.",
  "rms",
  "rof",
  "rol",
  "rom",
  "ron",
  "ror",
  "ros",
  "rp.",
  "rs.",
  "rth",
  "rwg",
  "s",
  "s's",
  "s.",
  "s.c.",
  "safety",
  "sal",
  "same",
  "sample",
  "sampled",
  "samples",
  "sampling",
  "sar",
  "sarsat",
  "sat",
  "satellite",
  "satellite-",
  "satellites",
  "scale",
  "scan",
  "scene",
  "schedule",
  "scmar-0011",
  "sea",
  "search",
  "second",
  "seconds",
  "secretary",
  "security",
  "sed",
  "segment",
  "segments",
  "seiss",
  "sen",
  "sen.",
  "send",
  "sensor",
  "sensors",
  "sep",
  "sep.",
  "sept",
  "sept.",
  "ser",
  "series",
  "service",
  "services",
  "ses",
  "set",
  "sgps",
  "sh.",
  "sha",
  "shall",
  "she",
  "she's",
  "she\u2019s",
  "short",
  "shortwave",
  "should",
  "signal",
  "signals",
  "simultaneous",
  "simultaneously",
  "sis",
  "situ",
  "size",
  "skin",
  "sks",
  "sky",
  "sly",
  "smoke",
  "snow",
  "snr",
  "so2",
  "software",
  "sol",
  "solar",
  "some",
  "somethin",
  "somethin'",
  "something",
  "somethin\u2019",
  "sor",
  "sources",
  "south",
  "space",
  "spacecraft",
  "spanned",
  "spatial",
  "spd",
  "specified",
  "spectral",
  "spot",
  "srs",
  "ss",
  "ss.",
  "ssp",
  "st",
  "st.",
  "stability",
  "standard",
  "standards",
  "standing",
  "stations",
  "storage",
  "store",
  "stream",
  "sub",
  "submitted",
  "subsystem",
  "such",
  "suite",
  "suitland",
  "support",
  "supporting",
  "surface",
  "suvi",
  "swath",
  "swfo",
  "swpc",
  "system",
  "systems",
  "s\u2019s",
  "t",
  "t's",
  "t.",
  "ta",
  "table",
  "tal",
  "td.",
  "te-",
  "technique",
  "technology",
  "ted",
  "telemetry",
  "tem",
  "temperature",
  "temporal",
  "tenn",
  "tenn.",
  "ter",
  "term",
  "terminals",
  "terrestrial",
  "tes",
  "than",
  "that",
  "that's",
  "that\u2019s",
  "the",
  "them",
  "there",
  "there's",
  "there\u2019s",
  "these",
  "these's",
  "these\u2019s",
  "they",
  "this",
  "this's",
  "this\u2019s",
  "thm",
  "those",
  "those's",
  "those\u2019s",
  "threat",
  "three",
  "throughout",
  "ths",
  "tic",
  "time",
  "tly",
  "to",
  "toa",
  "ton",
  "top",
  "tor",
  "total",
  "track",
  "tracking",
  "transient",
  "transients",
  "transition",
  "transmission",
  "traversal",
  "tropopause",
  "try",
  "ttr",
  "turbulence",
  "two",
  "type",
  "t\u2019s",
  "u",
  "u.",
  "u.s.",
  "ual",
  "uce",
  "uch",
  "uct",
  "ude",
  "uff",
  "ug.",
  "uid",
  "ul.",
  "uld",
  "ule",
  "ull",
  "ultraviolet",
  "un.",
  "uncertainty",
  "und",
  "under",
  "understanding",
  "unencrypted",
  "uniformity",
  "uniformly",
  "up",
  "upon",
  "upward",
  "ure",
  "urs",
  "us",
  "use",
  "used",
  "user",
  "users",
  "using",
  "ust",
  "ute",
  "uth",
  "utilize",
  "utilizing",
  "uts",
  "uty",
  "uvi",
  "uvs",
  "v",
  "v\"/overshooting",
  "v.",
  "v.s",
  "v.s.",
  "v.v",
  "v_v",
  "va",
  "va.",
  "val",
  "valid",
  "variation",
  "ve",
  "ved",
  "vegetation",
  "vehicle",
  "vel",
  "ven",
  "ver",
  "versions",
  "vertical",
  "vetted",
  "via",
  "vicinity",
  "vin",
  "visibility",
  "volcanic",
  "vs",
  "vs.",
  "w",
  "w's",
  "w.",
  "w/o",
  "waived",
  "wallops",
  "was",
  "wash",
  "wash.",
  "water",
  "wavelengths",
  "we",
  "weather",
  "were",
  "west",
  "wfo",
  "what",
  "what's",
  "what\u2019s",
  "when",
  "when's",
  "when\u2019s",
  "where",
  "where's",
  "where\u2019s",
  "who",
  "who's",
  "who\u2019s",
  "why",
  "why's",
  "why\u2019s",
  "will",
  "win",
  "winds",
  "wis",
  "wis.",
  "with",
  "within",
  "without",
  "wo",
  "working",
  "would",
  "wpc",
  "w\u2019s",
  "x",
  "x\"/xxxx",
  "x'",
  "x'x",
  "x'xxxx",
  "x-",
  "x-dd",
  "x.",
  "x.X",
  "x.d",
  "x.x",
  "x.x.",
  "x/x",
  "xD",
  "xDD",
  "xX",
  "xXX",
  "x_X",
  "x_d",
  "x_x",
  "xd",
  "xdd",
  "xddd",
  "xdx",
  "xis",
  "xrs",
  "xx",
  "xx'",
  "xx'x",
  "xx'xx",
  "xx-",
  "xx.",
  "xxX",
  "xxd",
  "xxx",
  "xxx'x",
  "xxx-dddd",
  "xxx/xx",
  "xxxd",
  "xxxdddd",
  "xxxx",
  "xxxx'",
  "xxxx'x",
  "xxxx-",
  "xxxx-dddd",
  "xxxx.(XXX",
  "xxxx.(xxx",
  "xxxx\u2019",
  "xxxx\u2019x",
  "xxx\u2019x",
  "xx\u2019",
  "xx\u2019x",
  "xx\u2019xx",
  "x\u2019",
  "x\u2019x",
  "x\u2019xxxx",
  "x\ufe35x",
  "y",
  "y'",
  "y's",
  "y.",
  "year",
  "years",
  "you",
  "ype",
  "ypt",
  "y\u2019",
  "y\u2019s",
  "z",
  "z.",
  "zones",
  "|",
  "}",
  "\u00a0",
  "\u00ac",
  "\u00ac_\u00ac",
  "\u00af",
  "\u00af\\(x)/\u00af",
  "\u00af\\(\u30c4)/\u00af",
  "\u00b0",
  "\u00b0C.",
  "\u00b0F.",
  "\u00b0K.",
  "\u00b0X.",
  "\u00b0c.",
  "\u00b0f.",
  "\u00b0k.",
  "\u00b0x.",
  "\u00b1",
  "\u00b13",
  "\u00b1d",
  "\u00e4",
  "\u00e4.",
  "\u00f6",
  "\u00f6.",
  "\u00fc",
  "\u00fc.",
  "\u03c3",
  "\u0ca0",
  "\u0ca0_\u0ca0",
  "\u0ca0\ufe35\u0ca0",
  "\u2014",
  "\u2018",
  "\u2018S",
  "\u2018X",
  "\u2018s",
  "\u2018x",
  "\u2019",
  "\u2019-(",
  "\u2019-)",
  "\u2019Cause",
  "\u2019Cos",
  "\u2019Coz",
  "\u2019Cuz",
  "\u2019S",
  "\u2019X",
  "\u2019Xxx",
  "\u2019Xxxxx",
  "\u2019am",
  "\u2019bout",
  "\u2019cause",
  "\u2019cos",
  "\u2019coz",
  "\u2019cuz",
  "\u2019d",
  "\u2019em",
  "\u2019ll",
  "\u2019m",
  "\u2019nuff",
  "\u2019re",
  "\u2019s",
  "\u2019ve",
  "\u2019x",
  "\u2019xx",
  "\u2019xxx",
  "\u2019xxxx",
  "\u2019y",
  "\u2019\u2019",
  "\u201c",
  "\u201d",
  "\u2501",
  "\u253b",
  "\u253b\u2501\u253b",
  "\u256f",
  "\u25a1",
  "\ufe35",
  "\uff09"
]